-------------------------------------------------------------------------------
Test set: be.ordina.web.browserTests.edge.EdgeRegistrationTest
-------------------------------------------------------------------------------
Tests run: 2, Failures: 0, Errors: 1, Skipped: 0, Time elapsed: 20.338 s <<< FAILURE! - in be.ordina.web.browserTests.edge.EdgeRegistrationTest
successfulRegistrationTest(be.ordina.web.browserTests.edge.EdgeRegistrationTest)  Time elapsed: 8.306 s  <<< ERROR!
org.openqa.selenium.ElementNotInteractableException: 
element not interactable
  (Session info: MicrosoftEdge=87.0.664.41)
Build info: version: '3.141.59', revision: 'e82be7d358', time: '2018-11-14T08:17:03'
System info: host: 'ORD03141', ip: '192.168.0.240', os.name: 'Windows 10', os.arch: 'amd64', os.version: '10.0', java.version: '12.0.1'
Driver info: org.openqa.selenium.edge.EdgeDriver
Capabilities {acceptInsecureCerts: false, browserName: msedge, browserVersion: 87.0.664.41, javascriptEnabled: true, ms:edgeOptions: {debuggerAddress: localhost:59118}, msedge: {msedgedriverVersion: 86.0.622.69 (19046d7b09a04b..., userDataDir: C:\Users\JeBk\AppData\Local...}, networkConnectionEnabled: false, pageLoadStrategy: normal, platform: WINDOWS, platformName: WINDOWS, proxy: Proxy(), setWindowRect: true, strictFileInteractability: false, timeouts: {implicit: 0, pageLoad: 300000, script: 30000}, unhandledPromptBehavior: dismiss and notify, webauthn:virtualAuthenticators: true}
Session ID: a2aa5a04b958a43a2348cf96f2305000
	at be.ordina.web.browserTests.edge.EdgeRegistrationTest.successfulRegistrationTest(EdgeRegistrationTest.java:43)

